{
  "images": [
    {
      "id": 3,
      "type": "system",
      "status": "available",
      "name": "centos-7",
      "description": "CentOS 7",
      "image_size": null,
      "disk_size": 5,
      "created": "2018-01-15T11:34:45+00:00",
      "created_from": null,
      "bound_to": null,
      "os_flavor": "centos",
      "os_version": "7",
      "rapid_deploy": true,
      "protection": {
        "delete": false
      },
      "deprecated": null,
      "labels": {},
      "deleted": null,
      "architecture": "x86"
    },
    {
      "id": 5924233,
      "type": "system",
      "status": "available",
      "name": "debian-10",
      "description": "Debian 10",
      "image_size": null,
      "disk_size": 5,
      "created": "2019-07-08T06:35:48+00:00",
      "created_from": null,
      "bound_to": null,
      "os_flavor": "debian",
      "os_version": "10",
      "rapid_deploy": true,
      "protection": {
        "delete": false
      },
      "deprecated": null,
      "labels": {},
      "deleted": null,
      "architecture": "x86"
    },
    {
      "id": 15512617,
      "type": "system",
      "status": "available",
      "name": "ubuntu-20.04",
      "description": "Ubuntu 20.04",
      "image_size": null,
      "disk_size": 5,
      "created": "2020-04-23T17:55:14+00:00",
      "created_from": null,
      "bound_to": null,
      "os_flavor": "ubuntu",
      "os_version": "20.04",
      "rapid_deploy": true,
      "protection": {
        "delete": false
      },
      "deprecated": null,
      "labels": {},
      "deleted": null,
      "architecture": "x86"
    },
    {
      "id": 40093059,
      "type": "app",
      "status": "available",
      "name": "lamp",
      "description": "lamp",
      "image_size": null,
      "disk_size": 20,
      "created": "2021-06-08T06:21:07+00:00",
      "created_from": null,
      "bound_to": null,
      "os_flavor": "ubuntu",
      "os_version": "unknown",
      "rapid_deploy": false,
      "protection": {
        "delete": false
      },
      "deprecated": null,
      "labels": {},
      "deleted": null,
      "architecture": "x86"
    },
    {
      "id": 40093134,
      "type": "app",
      "status": "available",
      "name": "wordpress",
      "description": "wordpress",
      "image_size": null,
      "disk_size": 20,
      "created": "2021-06-08T06:21:42+00:00",
      "created_from": null,
      "bound_to": null,
      "os_flavor": "ubuntu",
      "os_version": "unknown",
      "rapid_deploy": false,
      "protection": {
        "delete": false
      },
      "deprecated": null,
      "labels": {},
      "deleted": null,
      "architecture": "x86"
    },
    {
      "id": 40093140,
      "type": "app",
      "status": "available",
      "name": "jitsi",
      "description": "jitsi",
      "image_size": null,
      "disk_size": 20,
      "created": "2021-06-08T06:21:47+00:00",
      "created_from": null,
      "bound_to": null,
      "os_flavor": "ubuntu",
      "os_version": "unknown",
      "rapid_deploy": false,
      "protection": {
        "delete": false
      },
      "deprecated": null,
      "labels": {},
      "deleted": null,
      "architecture": "x86"
    },
    {
      "id": 40093190,
      "type": "app",
      "status": "available",
      "name": "nextcloud",
      "description": "nextcloud",
      "image_size": null,
      "disk_size": 20,
      "created": "2021-06-08T06:22:07+00:00",
      "created_from": null,
      "bound_to": null,
      "os_flavor": "ubuntu",
      "os_version": "unknown",
      "rapid_deploy": false,
      "protection": {
        "delete": false
      },
      "deprecated": null,
      "labels": {},
      "deleted": null,
      "architecture": "x86"
    },
    {
      "id": 40093247,
      "type": "app",
      "status": "available",
      "name": "docker-ce",
      "description": "docker-ce",
      "image_size": null,
      "disk_size": 20,
      "created": "2021-06-08T06:22:47+00:00",
      "created_from": null,
      "bound_to": null,
      "os_flavor": "ubuntu",
      "os_version": "unknown",
      "rapid_deploy": false,
      "protection": {
        "delete": false
      },
      "deprecated": null,
      "labels": {},
      "deleted": null,
      "architecture": "x86"
    },
    {
      "id": 40093435,
      "type": "app",
      "status": "available",
      "name": "gitlab",
      "description": "gitlab",
      "image_size": null,
      "disk_size": 20,
      "created": "2021-06-08T06:24:08+00:00",
      "created_from": null,
      "bound_to": null,
      "os_flavor": "ubuntu",
      "os_version": "unknown",
      "rapid_deploy": false,
      "protection": {
        "delete": false
      },
      "deprecated": null,
      "labels": {},
      "deleted": null,
      "architecture": "x86"
    },
    {
      "id": 45557056,
      "type": "system",
      "status": "available",
      "name": "debian-11",
      "description": "Debian 11",
      "image_size": null,
      "disk_size": 5,
      "created": "2021-08-16T11:12:01+00:00",
      "created_from": null,
      "bound_to": null,
      "os_flavor": "debian",
      "os_version": "11",
      "rapid_deploy": true,
      "protection": {
        "delete": false
      },
      "deprecated": null,
      "labels": {},
      "deleted": null,
      "architecture": "x86"
    },
    {
      "id": 45778012,
      "type": "system",
      "status": "available",
      "name": "centos-stream-8",
      "description": "CentOS Stream 8",
      "image_size": null,
      "disk_size": 5,
      "created": "2021-08-05T05:07:23+00:00",
      "created_from": null,
      "bound_to": null,
      "os_flavor": "centos",
      "os_version": "Stream 8",
      "rapid_deploy": true,
      "protection": {
        "delete": false
      },
      "deprecated": null,
      "labels": {},
      "deleted": null,
      "architecture": "x86"
    },
    {
      "id": 45780948,
      "type": "system",
      "status": "available",
      "name": "rocky-8",
      "description": "Rocky Linux 8",
      "image_size": null,
      "disk_size": 5,
      "created": "2021-08-19T06:30:23+00:00",
      "created_from": null,
      "bound_to": null,
      "os_flavor": "rocky",
      "os_version": "8",
      "rapid_deploy": true,
      "protection": {
        "delete": false
      },
      "deprecated": null,
      "labels": {},
      "deleted": null,
      "architecture": "x86"
    },
    {
      "id": 59752342,
      "type": "system",
      "status": "available",
      "name": "centos-stream-9",
      "description": "CentOS Stream 9",
      "image_size": null,
      "disk_size": 5,
      "created": "2022-01-27T07:52:03+00:00",
      "created_from": null,
      "bound_to": null,
      "os_flavor": "centos",
      "os_version": "Stream 9",
      "rapid_deploy": true,
      "protection": {
        "delete": false
      },
      "deprecated": null,
      "labels": {},
      "deleted": null,
      "architecture": "x86"
    },
    {
      "id": 67794396,
      "type": "system",
      "status": "available",
      "name": "ubuntu-22.04",
      "description": "Ubuntu 22.04",
      "image_size": null,
      "disk_size": 5,
      "created": "2022-04-21T13:32:38+00:00",
      "created_from": null,
      "bound_to": null,
      "os_flavor": "ubuntu",
      "os_version": "22.04",
      "rapid_deploy": true,
      "protection": {
        "delete": false
      },
      "deprecated": null,
      "labels": {},
      "deleted": null,
      "architecture": "x86"
    },
    {
      "id": 71127104,
      "type": "app",
      "status": "available",
      "name": "ruby",
      "description": "ruby",
      "image_size": null,
      "disk_size": 20,
      "created": "2022-05-25T10:06:36+00:00",
      "created_from": null,
      "bound_to": null,
      "os_flavor": "ubuntu",
      "os_version": "unknown",
      "rapid_deploy": false,
      "protection": {
        "delete": false
      },
      "deprecated": null,
      "labels": {},
      "deleted": null,
      "architecture": "x86"
    },
    {
      "id": 71127447,
      "type": "app",
      "status": "available",
      "name": "go",
      "description": "go",
      "image_size": null,
      "disk_size": 20,
      "created": "2022-05-25T10:09:31+00:00",
      "created_from": null,
      "bound_to": null,
      "os_flavor": "ubuntu",
      "os_version": "unknown",
      "rapid_deploy": false,
      "protection": {
        "delete": false
      },
      "deprecated": null,
      "labels": {},
      "deleted": null,
      "architecture": "x86"
    },
    {
      "id": 73721460,
      "type": "app",
      "status": "available",
      "name": "prometheus-grafana",
      "description": "prometheus-grafana",
      "image_size": null,
      "disk_size": 20,
      "created": "2022-06-20T08:27:16+00:00",
      "created_from": null,
      "bound_to": null,
      "os_flavor": "ubuntu",
      "os_version": "unknown",
      "rapid_deploy": false,
      "protection": {
        "delete": false
      },
      "deprecated": null,
      "labels": {},
      "deleted": null,
      "architecture": "x86"
    },
    {
      "id": 73924728,
      "type": "app",
      "status": "available",
      "name": "collab-tools",
      "description": "collab-tools",
      "image_size": null,
      "disk_size": 20,
      "created": "2022-06-22T09:06:05+00:00",
      "created_from": null,
      "bound_to": null,
      "os_flavor": "ubuntu",
      "os_version": "unknown",
      "rapid_deploy": false,
      "protection": {
        "delete": false
      },
      "deprecated": null,
      "labels": {},
      "deleted": null,
      "architecture": "x86"
    },
    {
      "id": 76766499,
      "type": "system",
      "status": "available",
      "name": "rocky-9",
      "description": "Rocky Linux 9",
      "image_size": null,
      "disk_size": 5,
      "created": "2022-07-20T13:55:52+00:00",
      "created_from": null,
      "bound_to": null,
      "os_flavor": "rocky",
      "os_version": "9",
      "rapid_deploy": true,
      "protection": {
        "delete": false
      },
      "deprecated": null,
      "labels": {},
      "deleted": null,
      "architecture": "x86"
    },
    {
      "id": 80379320,
      "type": "app",
      "status": "available",
      "name": "wireguard",
      "description": "wireguard",
      "image_size": null,
      "disk_size": 20,
      "created": "2022-08-24T14:08:55+00:00",
      "created_from": null,
      "bound_to": null,
      "os_flavor": "ubuntu",
      "os_version": "unknown",
      "rapid_deploy": false,
      "protection": {
        "delete": false
      },
      "deprecated": null,
      "labels": {},
      "deleted": null,
      "architecture": "x86"
    },
    {
      "id": 92411262,
      "type": "system",
      "status": "available",
      "name": "fedora-37",
      "description": "Fedora 37",
      "image_size": null,
      "disk_size": 5,
      "created": "2022-12-13T12:57:45+00:00",
      "created_from": null,
      "bound_to": null,
      "os_flavor": "fedora",
      "os_version": "37",
      "rapid_deploy": true,
      "protection": {
        "delete": false
      },
      "deprecated": null,
      "labels": {},
      "deleted": null,
      "architecture": "x86"
    },
    {
      "id": 101588646,
      "type": "app",
      "status": "available",
      "name": "owncast",
      "description": "owncast",
      "image_size": null,
      "disk_size": 20,
      "created": "2023-03-01T10:21:43+00:00",
      "created_from": null,
      "bound_to": null,
      "os_flavor": "ubuntu",
      "os_version": "unknown",
      "rapid_deploy": false,
      "protection": {
        "delete": false
      },
      "deprecated": null,
      "labels": {},
      "deleted": null,
      "architecture": "x86"
    },
    {
      "id": 101588775,
      "type": "app",
      "status": "available",
      "name": "photoprism",
      "description": "photoprism",
      "image_size": null,
      "disk_size": 20,
      "created": "2023-03-01T10:22:15+00:00",
      "created_from": null,
      "bound_to": null,
      "os_flavor": "ubuntu",
      "os_version": "unknown",
      "rapid_deploy": false,
      "protection": {
        "delete": false
      },
      "deprecated": null,
      "labels": {},
      "deleted": null,
      "architecture": "x86"
    },
    {
      "id": 102456737,
      "type": "app",
      "status": "available",
      "name": "rustdesk",
      "description": "rustdesk",
      "image_size": null,
      "disk_size": 20,
      "created": "2023-03-08T14:01:35+00:00",
      "created_from": null,
      "bound_to": null,
      "os_flavor": "ubuntu",
      "os_version": "unknown",
      "rapid_deploy": false,
      "protection": {
        "delete": false
      },
      "deprecated": null,
      "labels": {},
      "deleted": null,
      "architecture": "x86"
    },
    {
      "id": 103905968,
      "type": "system",
      "status": "available",
      "name": "debian-10",
      "description": "Debian 10",
      "image_size": null,
      "disk_size": 5,
      "created": "2023-03-20T09:46:50+00:00",
      "created_from": null,
      "bound_to": null,
      "os_flavor": "debian",
      "os_version": "10",
      "rapid_deploy": true,
      "protection": {
        "delete": false
      },
      "deprecated": null,
      "labels": {},
      "deleted": null,
      "architecture": "arm"
    }
  ],
  "meta": {
    "pagination": {
      "page": 1,
      "per_page": 25,
      "previous_page": null,
      "next_page": 2,
      "last_page": 3,
      "total_entries": 56
    }
  }
}
